X:1
T:22nd of February
Q:1/4=100
B:Virginia Reels no. 2, by George P. Knauff (1839)
C:Traditional
Z:Michael DeBusk, 2022-06-25
M:2/4
G:Fiddle
R:reel
L:1/16
K:A
F2 | (E2CE) D2 z2 | (B2GB) A2 z2 | BEcE dEcE | (BcBA) (AGFE) |
E2CE D2 z2 | B2GB A2 z2 | (fdge) (afed) | cBAG A2 ||
(fg) | (a2ga) (f2ga) | b4 (agfe) | gebe gebe | (fgaf) (e2fg) |
(a2ga) (fgag) | (e2fe) (dcBA) | fdge (afed) | cBAG A2 ||
