X:1
T:Forked Deer
Q:1/4=100
B:Virginia Reels no. 1, by George P. Knauff (1839)
C:Traditional
Z:Michael DeBusk, 2018-08-27
M:2/4
G:Fiddle
R:reel
L:1/16
K:D
|A2cA A2cA|A2c2 EEC2|A2cA A2cA|E2C2 DDD2|
|AAcA AAcA|AcAc D2CC|D2E2 F2G2|FEDC D2z2:|
|:defg abaf|gage fgfe|defg afba|gfed cde2|
|defg abaf|gage f2z2|d2F2 GBAG|FEDC D2z2:|
