X:1
T:The Hero
Q:1/4=100
B:Virginia Reels no. 2, by George P. Knauff (1839)
C:Traditional
Z:Michael DeBusk, 2022-06-25
M:2/4
G:Fiddle
R:reel
L:1/16
K:C
C2C2 (CEGB) | (cGEG) (cGEG) | D2D2 (D^FA^c) | (dA^FA) (BAFA) |
C2C2 (CEGB) | cGEG c2BA | G2g2 (edcA) | (Gccd) c2c2 :|
|: (ecag) (ecag) | (efga) g2dc | (BGdc) (BGdc) | (Bcde) (d2ag) |
(ecgc) (acgc) | (efga) g2g2 | A2f2 (edcB) | (Gccd) c2c2 :|
